<svg width="12" height="7" viewBox="0 0 12 7" fill="none" xmlns="http://www.w3.org/2000/svg">
<path d="M1.01617 0.240318C0.947894 0.315989 0.893725 0.405884 0.856766 0.504853C0.819806 0.603821 0.800781 0.709919 0.800781 0.81707C0.800781 0.924221 0.819806 1.03032 0.856766 1.12929C0.893725 1.22826 0.947894 1.31815 1.01617 1.39382L5.89007 6.80942C5.94433 6.86983 6.00879 6.91776 6.07974 6.95046C6.15069 6.98317 6.22675 7 6.30356 7C6.38038 7 6.45644 6.98317 6.52739 6.95046C6.59834 6.91776 6.66279 6.86983 6.71705 6.80942L11.591 1.39382C11.8784 1.07449 11.8784 0.55965 11.591 0.240318C11.3036 -0.0790127 10.8402 -0.0790127 10.5528 0.240318L6.30063 4.9586L2.04843 0.233802C1.7669 -0.0790114 1.29769 -0.0790129 1.01617 0.240318Z" fill="white"/>
</svg>
